…
Now, we will check for a difference in source states of Ales vs. IPAs. If there is a difference, we can find the state's longitude and latitude for the KNN.

```r
df %>% filter(IPA_Or_Ale == "IPA") %>% group_by(State) %>% summarise(IPA_count = n(), IPA_percent_representation = n() / nrow(.) * 100 ) %>% arrange(desc(IPA_percent_representation))
```

```
## `summarise()` ungrouping output (override with `.groups` argument)
```

```
## # A tibble: 49 x 3
##    State IPA_count IPA_percent_representation
##    <chr>     <int>                      <dbl>
##  1 " CA"        58                      10.2 
##  2 " CO"        57                       9.98
##  3 " IN"        34                       5.95
##  4 " OR"        31                       5.43
##  5 " MI"        30                       5.25
##  6 " IL"        25                       4.38
##  7 " MA"        24                       4.20
##  8 " PA"        23                       4.03
##  9 " TX"        23                       4.03
## 10 " WA"        22                       3.85
## # ... with 39 more rows
```

```r
df %>% filter(IPA_Or_Ale == "Ale") %>% group_by(State) %>% summarise(Ale_count = n(), Ale_percent_representation = n() / nrow(.) * 100 ) %>% arrange(desc(Ale_percent_representation))
```

```
## `summarise()` ungrouping output (override with `.groups` argument)
```

```
## # A tibble: 51 x 3
##    State Ale_count Ale_percent_representation
##    <chr>     <int>                      <dbl>
##  1 " CO"       121                      12.6 
##  2 " CA"        66                       6.85
##  3 " MI"        64                       6.65
##  4 " IN"        54                       5.61
##  5 " TX"        54                       5.61
##  6 " OR"        53                       5.50
##  7 " IL"        43                       4.47
##  8 " PA"        33                       3.43
##  9 " NY"        28                       2.91
## 10 " WI"        27                       2.80
## # ... with 41 more rows
```
…
First, we will explore ounces with other variables.
We will do a quick check for Ounces anomalies. Are there any popular styles that are primarily in uncommon ounces?

```r
df %>% group_by(Style, Ounces) %>% summarise(count = n())
```

```
## `summarise()` regrouping output by 'Style' (override with `.groups` argument)
```

```
## # A tibble: 210 x 3
## # Groups:   Style [100]
##    Style                      Ounces count
##    <chr>                       <dbl> <int>
##  1 ""                             12     3
##  2 ""                             16     1
##  3 ""                             32     1
##  4 "Abbey Single Ale"             12     2
##  5 "Altbier"                      12     8
##  6 "Altbier"                      16     5
##  7 "American Adjunct Lager"       12    14
##  8 "American Adjunct Lager"       16     3
##  9 "American Adjunct Lager"       24     1
## 10 "American Amber / Red Ale"     12    90
## # ... with 200 more rows
```

```r
df %>% group_by(Style, Ounces) %>% summarise(count = n()) %>% arrange(desc(Ounces))
```

```
## `summarise()` regrouping output by 'Style' (override with `.groups` argument)
```

```
## # A tibble: 210 x 3
## # Groups:   Style [100]
##    Style                            Ounces count
##    <chr>                             <dbl> <int>
##  1 ""                                   32     1
##  2 "American Double / Imperial IPA"     32     1
##  3 "American IPA"                       32     1
##  4 "American Pale Ale (APA)"            32     1
##  5 "Belgian Pale Ale"                   32     1
##  6 "American Adjunct Lager"             24     1
##  7 "American Amber / Red Lager"         24     1
##  8 "American Blonde Ale"                24     1
##  9 "American Double / Imperial IPA"     24     1
## 10 "American IPA"                       24     5
## # ... with 200 more rows
```
…
Fruit beers have no visual correlation between IBU and ABV. The IBUs have a bimodal distribution, which could be due to its small sample size. Fruits and Ciders also appear to have a bimodal distribution. This makes sense because ABV is correlated to IBU.

We will first revisit the top beers by state, followed by the top Fruit Beers by state and then by city.

```r
df %>% group_by(State) %>% summarise(count = n(),all_states_percent_rep = n() / nrow(.) * 100) %>% arrange(desc(count))
```

```
## `summarise()` ungrouping output (override with `.groups` argument)
```

```
## # A tibble: 51 x 3
##    State count all_states_percent_rep
##    <chr> <int>                  <dbl>
##  1 " CO"   265                  11.0 
##  2 " CA"   183                   7.59
##  3 " MI"   162                   6.72
##  4 " IN"   139                   5.77
##  5 " TX"   130                   5.39
##  6 " OR"   125                   5.19
##  7 " PA"   100                   4.15
##  8 " IL"    91                   3.78
##  9 " WI"    87                   3.61
## 10 " MA"    82                   3.40
## # ... with 41 more rows
```

```r
df_clean %>% group_by(State) %>% summarise(count = n(),fruit_state_percent_rep = n() / nrow(.) * 100) %>% arrange(desc(count))
```

```
## `summarise()` ungrouping output (override with `.groups` argument)
```

```
## # A tibble: 24 x 3
##    State count fruit_state_percent_rep
##    <chr> <int>                   <dbl>
##  1 " MI"    17                   19.8 
##  2 " OR"     9                   10.5 
##  3 " CA"     5                    5.81
##  4 " IN"     5                    5.81
##  5 " MA"     5                    5.81
##  6 " OH"     5                    5.81
##  7 " PA"     5                    5.81
##  8 " WA"     5                    5.81
##  9 " VT"     4                    4.65
## 10 " AZ"     3                    3.49
## # ... with 14 more rows
```

```r
df_clean %>% group_by(City) %>% summarise(count = n(),fruit_city_percent_rep = n() / nrow(.) * 100) %>% arrange(desc(count))
```

```
## `summarise()` ungrouping output (override with `.groups` argument)
```

```
## # A tibble: 55 x 3
##    City            count fruit_city_percent_rep
##    <chr>           <int>                  <dbl>
##  1 Seattle             5                   5.81
##  2 Spring Lake         5                   5.81
##  3 Cincinnati          4                   4.65
##  4 Corvallis           4                   4.65
##  5 Portland            4                   4.65
##  6 San Francisco       4                   4.65
##  7 Aurora              3                   3.49
##  8 Somerset Center     3                   3.49
##  9 St. John's          3                   3.49
## 10 Biglerville         2                   2.33
## # ... with 45 more rows
```
Michigan sources the third highest amount of beers in the country with 6.7%. If you look at only Ciders and Fruit/Vegetable Beers, they increase to first with 19.8%. Does this indicate cheaper source materials or higher demand in this area?

Do we see any similarities with pumpkin ales?

```r
df %>% group_by(State) %>% summarise(count = n(),all_states_percent_rep = n() / nrow(.) * 100) %>% arrange(desc(count))
```

```
## `summarise()` ungrouping output (override with `.groups` argument)
```

```
## # A tibble: 51 x 3
##    State count all_states_percent_rep
##    <chr> <int>                  <dbl>
##  1 " CO"   265                  11.0 
##  2 " CA"   183                   7.59
##  3 " MI"   162                   6.72
##  4 " IN"   139                   5.77
##  5 " TX"   130                   5.39
##  6 " OR"   125                   5.19
##  7 " PA"   100                   4.15
##  8 " IL"    91                   3.78
##  9 " WI"    87                   3.61
## 10 " MA"    82                   3.40
## # ... with 41 more rows
```
…
